********************** 
Date of registration = 2017-04-10 17:47:43 +0000,
 login = Norb22,
 pass = westawestam,
 FN = Denis,
 LN = Linov,
 age = 22,
 e-mail = denchik@com.ua,
 phone = (099) 789-1234

********************** 
Date of registration = 2017-04-10 17:50:47 +0000,
 login = Max,
 pass = asdfgh,
 FN = Maxim,
 LN = Illarionov,
 age = 29,
 e-mail = max@ua.fm,
 phone = (097) 123-4567

********************** 
Date of registration = 2017-04-10 17:54:48 +0000,
 login = Anka,
 pass = annamaria$&@,
 FN = Anna,
 LN = Liso Mandella,
 age = 25,
 e-mail = anny@bk.ua,
 phone = (066) 789-5544

********************** 
Date of registration = 2017-04-10 17:57:23 +0000,
 login = Markizio,
 pass = markopolo,
 FN = Marko,
 LN = Polo,
 age = 45,
 e-mail = a@b.n,
 phone = +1 (689) 777-7664

********************** 
Date of registration = 2017-04-11 09:22:26 +0000,
 login = Vik,
 pass = mmmkkkllll,
 FN = Viktor,
 LN = Kipa,
 age = 34,
 e-mail = vik@n.ru,
 phone = (097) 888-8444

********************** 
Date of registration = 2017-04-11 09:38:43 +0000,
 login = Sandro,
 pass = asdqwerty,
 FN = Alexander,
 LN = Berezovskyi,
 age = 29,
 e-mail = aberezovskyy@mail.ru,
 phone = (093) 528-6918

********************** 
Date of registration = 2017-04-11 09:42:53 +0000,
 login = Qert,
 pass = poilkj,
 FN = Nick,
 LN = Lok,
 age = 64,
 e-mail = c@n.com,
 phone = +1 (777) 666-5544

********************** 
Date of registration = 2017-04-11 09:49:39 +0000,
 login = Andr,
 pass = adgjlmr,
 FN = Andrey,
 LN = Sikalo,
 age = 26,
 e-mail = n@m.com,
 phone = (098) 777-5544

********************** 
Date of registration = 2017-04-11 09:51:36 +0000,
 login = Asad,
 pass = asdyui,
 FN = Ami,
 LN = Tin,
 age = 44,
 e-mail = y@hhh.mu,
 phone = (066) 543-2211

********************** 
Date of registration = 2017-04-11 09:54:08 +0000,
 login = Eeegggg,
 pass = qwezxc,
 FN = Norb,
 LN = Bud,
 age = 48,
 e-mail = 5@ua.fm,
 phone = (099) 888-8888

********************** 
Date of registration = 2017-04-11 10:00:11 +0000,
 login = Abow,
 pass = zxcvbn,
 FN = Denis,
 LN = Rogov,
 age = 38,
 e-mail = rog@bk.bl,
 phone = (067) 458-9301

********************** 
Date of registration = 2017-04-11 10:06:14 +0000,
 login = Qqq,
 pass = wwwwwwww,
 FN = Alex,
 LN = Cin,
 age = 51,
 e-mail = e@n.m,
 phone = (044) 555-5555

********************** 
Date of registration = 2017-04-11 10:47:17 +0000,
 login = Rex,
 pass = ioioio,
 FN = Semen,
 LN = Bruno,
 age = 117,
 e-mail = r@ex.com,
 phone = (073) 455-4212

********************** 
Date of registration = 2017-04-11 11:07:29 +0000,
 login = Ali,
 pass = alinasdfg,
 FN = Alina,
 LN = Minina,
 age = 22,
 e-mail = ttt@n.mol,
 phone = +8 (888) 888-8888

********************** 
Date of registration = 2017-04-11 11:12:26 +0000,
 login = Bor,
 pass = bnmlkj,
 FN = Boris,
 LN = Celovalskiy,
 age = 33,
 e-mail = borya@com.ua,
 phone = (056) 771-0379

********************** 
Date of registration = 2017-04-11 11:14:43 +0000,
 login = Wad,
 pass = tttttttt,
 FN = Vadim,
 LN = Borsh,
 age = 54,
 e-mail = 55@8.com,
 phone = +5 (555) 555-5555

********************** 
Date of registration = 2017-04-11 11:17:24 +0000,
 login = Nn,
 pass = nnnnnnnn,
 FN = Nok,
 LN = Pok,
 age = 66,
 e-mail = chook@b.m,
 phone = +3 (333) 333-3333

********************** 
Date of registration = 2017-04-11 11:27:40 +0000,
 login = Masha,
 pass = opaopa,
 FN = Masha,
 LN = Ten,
 age = 39,
 e-mail = e@nok.ru,
 phone = +4 (444) 444-4444

********************** 
Date of registration = 2017-04-11 11:36:14 +0000,
 login = Marko,
 pass = afcX7777,
 FN = Marine,
 LN = Dziga,
 age = 30,
 e-mail = e.b.mon@v.n,
 phone = +3 (456) 712-3457

********************** 
Date of registration = 2017-04-11 11:37:49 +0000,
 login = Rex,
 pass = fffgggg,
 FN = Tolik,
 LN = Huk,
 age = 34,
 e-mail = tol@b.com,
 phone = (097) 888-5533

********************** 
Date of registration = 2017-04-11 12:13:26 +0000,
 login = Vik,
 pass = casdrryyyy&,
 FN = Viktor,
 LN = Topalov,
 age = 50,
 e-mail = vik@com.ua,
 phone = (099) 113-3444

********************** 
Date of registration = 2017-04-11 13:28:44 +0000,
 login = Stich,
 pass = srtcvb,
 FN = Lilo,
 LN = Mop,
 age = 38,
 e-mail = r@n.lov,
 phone = +5 (555) 555-5555

********************** 
Date of registration = 2017-04-11 13:29:58 +0000,
 login = Tt,
 pass = yuyyyyyy,
 FN = I,
 LN = M,
 age = 55,
 e-mail = e@n.m,
 phone = 655-5555

********************** 
Date of registration = 2017-04-11 13:31:31 +0000,
 login = Rrr,
 pass = lookoooo,
 FN = Daniel,
 LN = Chaobambino,
 age = 44,
 e-mail = y@b.n,
 phone = +7 (777) 777-7777

********************** 
Date of registration = 2017-04-11 13:53:13 +0000,
 login = Kentawr,
 pass = remmioi,
 FN = Max,
 LN = Bur,
 age = 87,
 e-mail = t@n.m,
 phone = +3 (333) 333-3333

********************** 
Date of registration = 2017-04-11 15:34:03 +0000,
 login = Eee,
 pass = hhhhhhhh,
 FN = Tyyy,
 LN = M,
 age = 22,
 e-mail = r@b.mon,
 phone = +2 (222) 222-2222

********************** 
Date of registration = 2017-04-11 15:38:17 +0000,
 login = Der,
 pass = hjjjjjjjjjj,
 FN = Tony,
 LN = Montana,
 age = 77,
 e-mail = boss@mafia.com.ua,
 phone = +4 (444) 444-4444

********************** 
Date of registration = 2017-04-11 19:38:04 +0000,
 login = Gopniik45-vasisa,
 pass = fuuuuuuuuuuuuuu,
 FN = Jip Chen-fuk,
 LN = Jip Sui-hui-chai,
 age = 45,
 e-mail = dyyyyyyyyyz~~~5&&====$~#[]+--__@78.com,
 phone = +344 (888) 888-8888

********************** 
Date of registration = 2017-04-13 12:41:35 +0000,
 login = rrr,
 pass = dfghjkl,
 FN = Erda,
 LN = Toopal,
 age = 44,
 e-mail = R@m.com,
 phone = +1 (555) 555-5555

********************** 
Date of registration = 2017-04-13 12:41:39 +0000,
 login = rrr,
 pass = dfghjkl,
 FN = Erda,
 LN = Toopal,
 age = 44,
 e-mail = R@m.com,
 phone = +1 (555) 555-5555

********************** 
Date of registration = 2017-04-13 12:45:12 +0000,
 login = rrr,
 pass = dfghjkl,
 FN = Erda,
 LN = Toopal,
 age = 44,
 e-mail = R@m.com,
 phone = +1 (555) 555-5555

********************** 
Date of registration = 2017-04-13 12:45:13 +0000,
 login = rrr,
 pass = dfghjkl,
 FN = Erda,
 LN = Toopal,
 age = 44,
 e-mail = R@m.com,
 phone = +1 (555) 555-5555

********************** 
Date of registration = 2017-04-13 12:47:24 +0000,
 login = rerr,
 pass = njnnnnnn,
 FN = Nikols,
 LN = Tesla,
 age = 33,
 e-mail = T@n.com,
 phone = +1 (333) 333-3333

********************** 
Date of registration = 2017-04-13 12:48:26 +0000,
 login = ryyy,
 pass = yyyhhkk,
 FN = Gorge,
 LN = Mickl,
 age = 33,
 e-mail = Tb@b.net,
 phone = +1 (333) 333-3333

********************** 
Date of registration = 2017-04-14 07:54:59 +0000,
 login = eee,
 pass = mmmmbbb,
 FN = Ffffff,
 LN = Ggggggg,
 age = 44,
 e-mail = T@n.m,
 phone = +44 (444) 444-4444

********************** 
Date of registration = 2017-04-18 10:00:07 +0000,
 login = asdas,
 pass = adasdda,
 FN = Adas,
 LN = Adssa,
 age = 22,
 e-mail = 3@m.m,
 phone = +3 (333) 333-3333

********************** 
Date of registration = 2017-04-18 10:01:50 +0000,
 login = qewqe,
 pass = ewqeqwe,
 FN = Qweqwe,
 LN = Eqwewqe,
 age = 33,
 e-mail = 3@i.m,
 phone = +2 (222) 222-2222

********************** 
Date of registration = 2017-04-18 10:13:34 +0000,
 login = wqe,
 pass = eqwewqe,
 FN = Qewwqe,
 LN = Qwewq,
 age = 22,
 e-mail = 2@i.i,
 phone = (2) 222-2222

********************** 
Date of registration = 2017-04-18 10:16:34 +0000,
 login = e324324,
 pass = 24234324,
 FN = Wdfdsf,
 LN = Sdgdsgds,
 age = 33,
 e-mail = 3@r.c,
 phone = (2) 222-2222

********************** 
Date of registration = 2017-04-18 12:05:03 +0000,
 login = 2324,
 pass = ddsfdsfdsf,
 FN = Fsdfsdfds,
 LN = Sdfdsfdsf,
 age = 22,
 e-mail = 3@i.co,
 phone = (222) 222-2222

********************** 
Date of registration = 2017-04-18 12:06:35 +0000,
 login = 342234,
 pass = 234542354,
 FN = Fgdfdg,
 LN = Dfgfdg,
 age = 33,
 e-mail = 3@o.v,
 phone = (222) 222-2222

********************** 
Date of registration = 2017-04-18 12:13:27 +0000,
 login = sdfdsf,
 pass = sdfdsfdsf,
 FN = Dsfdsfdsf,
 LN = Sdfdsf,
 age = 33,
 e-mail = 3@i.i,
 phone = (22) 222-2222

********************** 
Date of registration = 2017-04-18 12:13:39 +0000,
 login = sdfdsf,
 pass = sdfdsfdsf,
 FN = Dsfdsfdsf,
 LN = Sdfdsf,
 age = 33,
 e-mail = 3@i.i,
 phone = (22) 222-2222

********************** 
Date of registration = 2017-04-18 12:14:38 +0000,
 login = wewrewr,
 pass = werwerew,
 FN = Rwerew,
 LN = Werewr,
 age = 33,
 e-mail = 3@i.ua,
 phone = +44 (444) 444-4444

********************** 
Date of registration = 2017-04-18 12:16:17 +0000,
 login = 324324,
 pass = 2432525,
 FN = Fdsfgd,
 LN = Fdgfdg,
 age = 44,
 e-mail = 3@i.ua,
 phone = (555) 555-5555

********************** 
Date of registration = 2017-04-18 12:17:42 +0000,
 login = ewrewr,
 pass = 32423425,
 FN = Fdgfd,
 LN = Dfgfdg,
 age = 44,
 e-mail = 3@i.ua,
 phone = (222) 222-2222

********************** 
Date of registration = 2017-04-18 12:21:25 +0000,
 login = ewrewr,
 pass = 32423425,
 FN = Fdgfd,
 LN = Dfgfdg,
 age = 44,
 e-mail = 3@i.ua,
 phone = (222) 222-2222

********************** 
Date of registration = 2017-04-18 12:26:39 +0000,
 login = ewrewr,
 pass = 32423425,
 FN = Fdgfd,
 LN = Dfgfdg,
 age = 44,
 e-mail = 3@i.ua,
 phone = (222) 222-2222

********************** 
Date of registration = 2017-04-18 12:30:34 +0000,
 login = rewrew,
 pass = werewrewr,
 FN = Werewr,
 LN = Werewr,
 age = 33,
 e-mail = 3@i.u,
 phone = +3 (333) 333-3333

********************** 
Date of registration = 2017-04-18 12:42:31 +0000,
 login = qewqwr,
 pass = rqrqwrqw,
 FN = Sdgsdg,
 LN = Sdgsdg,
 age = 44,
 e-mail = 3@ua.d,
 phone = +5 (555) 555-5555

********************** 
Date of registration = 2017-04-18 12:45:11 +0000,
 login = werewt,
 pass = wetewtwe,
 FN = Wtewt,
 LN = Wtwetwe,
 age = 33,
 e-mail = 2@i.ua,
 phone = +2 (222) 222-2222

********************** 
Date of registration = 2017-04-18 12:46:17 +0000,
 login = werewt,
 pass = wetewtwe,
 FN = Wtewt,
 LN = Wtwetwe,
 age = 33,
 e-mail = 2@i.ua,
 phone = +2 (222) 222-2222

********************** 
Date of registration = 2017-04-18 12:50:32 +0000,
 login = ewrewr,
 pass = 2324324,
 FN = Sdfgfd,
 LN = Dfgdfg,
 age = 44,
 e-mail = 33@m.u,
 phone = (333) 333-3333

********************** 
Date of registration = 2017-04-18 12:52:06 +0000,
 login = ewrewrwe,
 pass = werewrewr,
 FN = Wewrer,
 LN = Werewrwe,
 age = 33,
 e-mail = 3@i.a,
 phone = (333) 333-3333

********************** 
Date of registration = 2017-04-18 12:53:40 +0000,
 login = wfewrew,
 pass = werwerewr,
 FN = Werewr,
 LN = Werwer,
 age = 33,
 e-mail = 4@i.u,
 phone = +3 (333) 333-3333

********************** 
Date of registration = 2017-04-18 12:56:34 +0000,
 login = 324324,
 pass = 23423432,
 FN = Fegfdg,
 LN = Dfgdfg,
 age = 44,
 e-mail = 4@u.a,
 phone = +5 (555) 555-5555

********************** 
Date of registration = 2017-04-18 13:07:03 +0000,
 login = ewrew,
 pass = werewrew,
 FN = Werewr,
 LN = Werwer,
 age = 44,
 e-mail = E@i.ua,
 phone = (44) 444-4444

********************** 
Date of registration = 2017-04-18 13:10:31 +0000,
 login = dsgfdsg,
 pass = ewrewr,
 FN = Werewr,
 LN = Wrewr,
 age = 44,
 e-mail = 4@r.a,
 phone = +4 (444) 444-4444

********************** 
Date of registration = 2017-04-18 13:22:11 +0000,
 login = ewrewr,
 pass = werewrew,
 FN = Werewr,
 LN = Werewr,
 age = 44,
 e-mail = 3@m.a,
 phone = +6 (777) 777-7777

********************** 
Date of registration = 2017-04-18 13:39:27 +0000,
 login = swerew,
 pass = ewrewrew,
 FN = Werewr,
 LN = Werewr,
 age = 44,
 e-mail = 3@i.a,
 phone = +6 (753) 464-3364

********************** 
Date of registration = 2017-04-18 13:43:04 +0000,
 login = dwfwe,
 pass = ewrewrew,
 FN = Werwer,
 LN = Werewr,
 age = 66,
 e-mail = 3@s.m,
 phone = +312 (312) 312-3123

********************** 
Date of registration = 2017-04-18 13:49:09 +0000,
 login = erwewr,
 pass = fdgfdg,
 FN = Fdgdfg,
 LN = Dfgdfgfd,
 age = 55,
 e-mail = 4@r.m,
 phone = +4 (325) 425-5225

********************** 
Date of registration = 2017-04-18 13:51:07 +0000,
 login = dfewr,
 pass = wretrt,
 FN = Ertert,
 LN = Ertret,
 age = 44,
 e-mail = 42@m.b,
 phone = +32 (432) 423-4243

********************** 
Date of registration = 2017-04-18 13:52:12 +0000,
 login = ewrewrr,
 pass = rwerewr,
 FN = Werewr,
 LN = Werewr,
 age = 33,
 e-mail = Df@m.u,
 phone = +32 (423) 432-4423

********************** 
Date of registration = 2017-04-18 13:57:36 +0000,
 login = fdsfdsf,
 pass = sdfdsfds,
 FN = Sdfdsf,
 LN = Dsfdsfds,
 age = 33,
 e-mail = 33@y.b,
 phone = +32 (423) 423-4432

********************** 
Date of registration = 2017-04-18 14:09:12 +0000,
 login = werewr,
 pass = werewrew,
 FN = Rewrw,
 LN = Werwer,
 age = 33,
 e-mail = 3@u.s,
 phone = +3 (243) 243-2423

********************** 
Date of registration = 2017-04-18 14:13:46 +0000,
 login = sdfdsgf,
 pass = sdgsgsg,
 FN = Dsfsg,
 LN = Sdgsdg,
 age = 33,
 e-mail = 3@k.i,
 phone = +3 (242) 342-3525

********************** 
Date of registration = 2017-04-18 14:14:45 +0000,
 login = dfdsgdsg,
 pass = sdgsdgds,
 FN = Sdgdsg,
 LN = Sdgsdg,
 age = 33,
 e-mail = 2@r.g,
 phone = +3 (423) 423-4324

********************** 
Date of registration = 2017-04-18 14:15:43 +0000,
 login = sfdsf,
 pass = sdfsdfsd,
 FN = Dsfdsf,
 LN = Dsfsdf,
 age = 66,
 e-mail = 3@i.o,
 phone = +32 (423) 432-4423

********************** 
Date of registration = 2017-04-18 14:17:46 +0000,
 login = dsfdsfdsf45345,
 pass = dsfdsfdsf,
 FN = Sdfdsf,
 LN = Dsfdsf,
 age = 33,
 e-mail = 3@f.b,
 phone = +23 (423) 432-4342

********************** 
Date of registration = 2017-04-18 14:27:42 +0000,
 login = rewrewr,
 pass = rewrewr,
 FN = Werewr,
 LN = Werewr,
 age = 34,
 e-mail = 33@i.n,
 phone = +3 (243) 245-5232

********************** 
Date of registration = 2017-04-18 14:28:45 +0000,
 login = fsdfsdf,
 pass = sdfsdf,
 FN = Sdfsdfs,
 LN = Sdfsdf,
 age = 44,
 e-mail = 43@i.m,
 phone = +4 (543) 543-5345

********************** 
Date of registration = 2017-04-18 14:42:00 +0000,
 login = ewrewr,
 pass = werewrewr,
 FN = Werewr,
 LN = Werewr,
 age = 55,
 e-mail = 3@i.o,
 phone = +32 (432) 432-4324

********************** 
Date of registration = 2017-04-18 14:43:43 +0000,
 login = dsfdsf,
 pass = sdfdsfds,
 FN = Sdfsdf,
 LN = Dsfsdf,
 age = 44,
 e-mail = 3@e.e,
 phone = +432 (432) 432-4423

********************** 
Date of registration = 2017-04-18 14:44:55 +0000,
 login = wrwerewr,
 pass = erwerwer,
 FN = Werwer,
 LN = Werwer,
 age = 44,
 e-mail = 3@j.f,
 phone = +32 (423) 423-4423

********************** 
Date of registration = 2017-04-18 14:45:21 +0000,
 login = wrwerewr,
 pass = erwerwer,
 FN = Werwer,
 LN = Werwer,
 age = 44,
 e-mail = 3@j.f,
 phone = +32 (423) 423-4423

********************** 
Date of registration = 2017-04-18 14:54:52 +0000,
 login = 324324,
 pass = 324324,
 FN = Fgfdgf,
 LN = Fdgfdg,
 age = 33,
 e-mail = 2@d.d,
 phone = +32 (432) 432-4324

********************** 
Date of registration = 2017-04-18 14:57:16 +0000,
 login = dwrewr,
 pass = rewrwer,
 FN = Werewr,
 LN = Ewrwer,
 age = 44,
 e-mail = 4@f.f,
 phone = +3 (432) 432-4423

********************** 
Date of registration = 2017-04-18 14:59:52 +0000,
 login = ewrewrew,
 pass = ewrewrewr,
 FN = Werewr,
 LN = Werewr,
 age = 44,
 e-mail = 3@d.f,
 phone = +42 (343) 244-2342

********************** 
Date of registration = 2017-04-18 15:02:02 +0000,
 login = drewrrew,
 pass = dwrewrew,
 FN = Dfewr,
 LN = Fewf,
 age = 55,
 e-mail = R@e.e,
 phone = +32 (432) 432-4234

********************** 
Date of registration = 2017-04-18 15:06:35 +0000,
 login = wrewrwe,
 pass = werewrewr,
 FN = Werewr,
 LN = Werewr,
 age = 44,
 e-mail = 43@r.r,
 phone = +324 (342) 343-2442

********************** 
Date of registration = 2017-04-18 15:07:56 +0000,
 login = rewrewr,
 pass = werwerwer,
 FN = Werewrwe,
 LN = Werwer,
 age = 44,
 e-mail = 4@md.e,
 phone = +3 (432) 423-4234

********************** 
Date of registration = 2017-04-18 15:09:56 +0000,
 login = qrewrew,
 pass = werewr,
 FN = Ewrewr,
 LN = Werew,
 age = 33,
 e-mail = 34@b.f,
 phone = (23) 414-1241

********************** 
Date of registration = 2017-04-18 15:15:32 +0000,
 login = eewrewr,
 pass = rwerewr,
 FN = Werewrewr,
 LN = Ewrewr,
 age = 34,
 e-mail = 4@e.e,
 phone = +23 (432) 432-4234

********************** 
Date of registration = 2017-04-18 15:19:31 +0000,
 login = 324234,
 pass = 234324,
 FN = Fgregre,
 LN = Gergre,
 age = 44,
 e-mail = G@f.f,
 phone = +3 (243) 243-2423

********************** 
Date of registration = 2017-04-18 15:31:15 +0000,
 login = 2432432,
 pass = 324234,
 FN = Fgfdg,
 LN = Fdgfdg,
 age = 44,
 e-mail = 4@f.f,
 phone = (43) 242-3423

********************** 
Date of registration = 2017-04-18 15:44:09 +0000,
 login = ewrewr,
 pass = fdgfdgfd,
 FN = Fdgfdg,
 LN = Fd,
 age = 43,
 e-mail = 4@r.r,
 phone = +2 (134) 141-4141

********************** 
Date of registration = 2017-04-18 15:56:16 +0000,
 login = rewrewr,
 pass = ewrewr,
 FN = Ewrewr,
 LN = Ewrew,
 age = 33,
 e-mail = Ff@e.e,
 phone = +34 (324) 324-2323

********************** 
Date of registration = 2017-04-18 18:23:11 +0000,
 login = gfdfgdf,
 pass = sgsdgsdg,
 FN = Gsdgsd,
 LN = Sdggs,
 age = 33,
 e-mail = 3@n.n,
 phone = +45 (345) 345-4353

********************** 
Date of registration = 2017-04-19 08:04:31 +0000,
 login = dsfdsf,
 pass = sdfdsfsdf,
 FN = Sdfsdf,
 LN = Sdfsdf,
 age = 33,
 e-mail = 33@i.c,
 phone = +3 (333) 333-3333

********************** 
Date of registration = 2017-04-19 08:06:03 +0000,
 login = dsfdsfdsf,
 pass = sdfsdfsd,
 FN = Dsfdsfsd,
 LN = Sdfdsf,
 age = 33,
 e-mail = 3@f.f,
 phone = +3 (242) 343-2423

********************** 
Date of registration = 2017-04-19 08:07:31 +0000,
 login = werewr,
 pass = werewrwe,
 FN = Wrewrwe,
 LN = Werewr,
 age = 22,
 e-mail = 3@r.v,
 phone = +214 (412) 421-4124

********************** 
Date of registration = 2017-04-19 08:31:23 +0000,
 login = 3wfwf,
 pass = efewfewf,
 FN = Fwfewfwefwefwef,
 LN = Dfdsfadf,
 age = 33,
 e-mail = Dd@ff.n,
 phone = +23 (432) 432-4423

********************** 
Date of registration = 2017-04-19 08:39:10 +0000,
 login = sdfdfdsf,
 pass = fdsfsdf,
 FN = Sdfsdf,
 LN = Sdfdsf,
 age = 33,
 e-mail = Dd@m.as,
 phone = +2 (343) 243-2423

********************** 
Date of registration = 2017-04-19 08:42:57 +0000,
 login = sfdwf,
 pass = wfwefwe,
 FN = Wfefw,
 LN = Wefew,
 age = 55,
 e-mail = Dfsdf@v.v,
 phone = +2 (343) 243-2423

********************** 
Date of registration = 2017-04-19 10:58:08 +0000,
 login = wefwf,
 pass = wfefewfwe,
 FN = Wefwef,
 LN = Wefwef,
 age = 44,
 e-mail = 4@v.v,
 phone = +3 (243) 242-3432

********************** 
Date of registration = 2017-04-19 11:05:05 +0000,
 login = ewrewr,
 pass = wrerewrewr,
 FN = Werwer,
 LN = Wreew,
 age = 55,
 e-mail = 33@v.b,
 phone = +43 (534) 534-5354

********************** 
Date of registration = 2017-04-19 11:07:44 +0000,
 login = dfdsf,
 pass = sdfdsfds,
 FN = Dsfds,
 LN = Sdfsdf,
 age = 33,
 e-mail = Ff@m.d,
 phone = +23 (423) 432-4324

********************** 
Date of registration = 2017-04-19 11:11:03 +0000,
 login = fdsfsdf,
 pass = fsdfsdfds,
 FN = Sdf,
 LN = Sdfds,
 age = 22,
 e-mail = 33@m.v,
 phone = +3 (243) 243-2423

********************** 
Date of registration = 2017-04-19 11:16:48 +0000,
 login = fdsfsdf,
 pass = sdfdsfdsf,
 FN = Sdfsdf,
 LN = Sdfdsf,
 age = 33,
 e-mail = Df@m.v,
 phone = +3 (242) 343-2432

********************** 
Date of registration = 2017-04-19 11:31:47 +0000,
 login = eedfdsf,
 pass = sdfdsfdsf,
 FN = Sdfdsf,
 LN = Sdfdsf,
 age = 33,
 e-mail = C@v.m,
 phone = +32 (423) 523-5324

********************** 
Date of registration = 2017-04-19 11:36:43 +0000,
 login = sdfdsfs,
 pass = dsfsdfds,
 FN = Sdfsdfsd,
 LN = Sdfsdf,
 age = 33,
 e-mail = Fdfsf@md.v,
 phone = +43 (243) 243-2432

********************** 
Date of registration = 2017-04-19 11:39:39 +0000,
 login = fsdfdsf,
 pass = sdfdsfsdf,
 FN = Sdfsdf,
 LN = Sdfdsf,
 age = 44,
 e-mail = Fff@m.v,
 phone = +23 (432) 432-4423

********************** 
Date of registration = 2017-04-19 11:47:09 +0000,
 login = dsfdsfds,
 pass = dsfdsfdsf,
 FN = Sdfsdf,
 LN = Sdfdsf,
 age = 55,
 e-mail = Fdsf@mf.fsd,
 phone = +34 (543) 543-5435

********************** 
Date of registration = 2017-04-19 12:00:00 +0000,
 login = dsfsdfds,
 pass = sdfdsfdsf,
 FN = Sfdsf,
 LN = Sdfsdf,
 age = 33,
 e-mail = Dsfds@m.v,
 phone = (324) 525-2352

********************** 
Date of registration = 2017-04-19 12:04:58 +0000,
 login = dsfdsf,
 pass = dsfdsf,
 FN = Sdfdsf,
 LN = Dsfds,
 age = 32,
 e-mail = Ff@d.d,
 phone = +2 (343) 242-3423

********************** 
Date of registration = 2017-04-19 12:09:07 +0000,
 login = fsdfsdf,
 pass = dsfsdfds,
 FN = Dsfdsf,
 LN = Fsdfsdf,
 age = 66,
 e-mail = Fdsf@f.f,
 phone = +3 (454) 543-5345

********************** 
Date of registration = 2017-04-19 12:10:33 +0000,
 login = dsfdsfds,
 pass = sdfsdfds,
 FN = Sdfdsfdsf,
 LN = Dsfdsf,
 age = 33,
 e-mail = Dsfdsf@d.a,
 phone = (234) 234-3243

********************** 
Date of registration = 2017-04-19 12:19:17 +0000,
 login = dsfdsfds,
 pass = sdfsdfds,
 FN = Sdfdsfdsf,
 LN = Dsfdsf,
 age = 33,
 e-mail = Dsfdsf@d.a,
 phone = (234) 234-3243

********************** 
Date of registration = 2017-04-19 12:40:04 +0000,
 login = dfdsf,
 pass = dsfdsfdsf,
 FN = Sdfdsf,
 LN = Fdsfdsf,
 age = 33,
 e-mail = Dfdsf@fdsf.fsdf,
 phone = +534 (543) 543-5354

********************** 
Date of registration = 2017-04-19 12:46:07 +0000,
 login = dsfsdfds,
 pass = fdsfsdfdsf,
 FN = Sdfdsf,
 LN = Sdfsdf,
 age = 44,
 e-mail = Fgfdg@fdsf.fsd,
 phone = +43 (534) 543-5435

********************** 
Date of registration = 2017-04-19 12:49:33 +0000,
 login = sfdsfdsf,
 pass = sdfdsfdsf,
 FN = Sdfdsf,
 LN = Sdfsdfsd,
 age = 44,
 e-mail = Dsfdf@mfsd.v,
 phone = (454) 354-3534

********************** 
Date of registration = 2017-04-19 13:00:39 +0000,
 login = dfsdfdsf,
 pass = sdfdsfds,
 FN = Sdfdsf,
 LN = Dsfdsf,
 age = 44,
 e-mail = Dsfsd@fasf.b,
 phone = (35) 425-4252

********************** 
Date of registration = 2017-04-19 13:02:05 +0000,
 login = dfdsfsd,
 pass = fdsfdsf,
 FN = Sdfdsf,
 LN = Sdfdsf,
 age = 33,
 e-mail = Dsfds@ff.fd,
 phone = +45 (454) 353-4543

********************** 
Date of registration = 2017-04-19 13:04:55 +0000,
 login = dfdsfds32423,
 pass = dsfsdfdsf,
 FN = Dsfsdfdsf,
 LN = Dsfsdfds,
 age = 33,
 e-mail = Fdsfs@fdsf.fsd,
 phone = (23) 442-3423

********************** 
Date of registration = 2017-04-19 13:07:21 +0000,
 login = dsadsad,
 pass = sadsadas,
 FN = Dsadsad,
 LN = Asd,
 age = 33,
 e-mail = 324@sfds.fsdf,
 phone = +34 (543) 534-5345

********************** 
Date of registration = 2017-04-19 13:09:05 +0000,
 login = dfdsfsd,
 pass = fdsfsdfsd,
 FN = Fsfddsf,
 LN = Dsfsdfsd,
 age = 44,
 e-mail = Fdgf@dsf.fds,
 phone = (43) 543-5435

********************** 
Date of registration = 2017-04-19 13:11:39 +0000,
 login = sdfdsfds,
 pass = fsdfdsfds,
 FN = Fdsf,
 LN = Dsf,
 age = 33,
 e-mail = Sfdfds@dsfds.df,
 phone = +3 (242) 342-3423

********************** 
Date of registration = 2017-04-19 13:15:45 +0000,
 login = sdfdsf,
 pass = sdfdsfdsf,
 FN = Sdfdsf,
 LN = Dsfdsf,
 age = 55,
 e-mail = Fsdfs@af.b,
 phone = +1 (243) 421-4114

********************** 
Date of registration = 2017-04-19 13:17:51 +0000,
 login = dsfsdfdsf,
 pass = sdfdsfdf,
 FN = Sdfsdfds,
 LN = Sdffsdfd,
 age = 44,
 e-mail = Fds@FDS.FDS,
 phone = +435 (354) 354-3534

********************** 
Date of registration = 2017-04-19 13:18:30 +0000,
 login = ddfdsfdsf,
 pass = dfsdsfds,
 FN = Dfsfdsf,
 LN = Sdfsdfsd,
 age = 66,
 e-mail = Dfsf@dsff.sd,
 phone = (34) 543-5454

********************** 
Date of registration = 2017-04-19 13:21:14 +0000,
 login = dfsfsdf,
 pass = dsfdsfdsf,
 FN = Sdfdsfdsf,
 LN = Sdfdsfdsf,
 age = 55,
 e-mail = Fdsf@fdsd.fsd,
 phone = +3 (242) 343-2423

********************** 
Date of registration = 2017-04-19 13:27:10 +0000,
 login = dfdsfdsf,
 pass = fdsfdsf,
 FN = Sfddfsd,
 LN = Fsdfsd,
 age = 66,
 e-mail = Fdsf@fdsf.fds,
 phone = +4 (354) 543-5435

********************** 
Date of registration = 2017-04-19 13:35:07 +0000,
 login = dasdasd,
 pass = asdsadsad,
 FN = Sadsad,
 LN = Sadsa,
 age = 77,
 e-mail = Dsfdsf@dsf.fsdf,
 phone = (343) 242-3234

********************** 
Date of registration = 2017-04-19 13:36:06 +0000,
 login = df,
 pass = dsfdsfdsf,
 FN = Fsdfsdf,
 LN = Sfddsf,
 age = 88,
 e-mail = 88@dfsd.fsdf,
 phone = +35 (423) 532-5235

********************** 
Date of registration = 2017-04-19 13:38:37 +0000,
 login = sddfdsfdsf,
 pass = dsfdsfd,
 FN = Sdfdsfds,
 LN = Fsdfdsf,
 age = 55,
 e-mail = Fdsff@dfdsf.fdsf,
 phone = (454) 354-3543

********************** 
Date of registration = 2017-04-19 13:40:54 +0000,
 login = dsfdsfdsf,
 pass = dsfdsfdsf,
 FN = Dsfdsfds,
 LN = Fsdfsd,
 age = 99,
 e-mail = Fdsfs@sgsd.gsdg,
 phone = (325) 925-0023

********************** 
Date of registration = 2017-04-19 13:44:24 +0000,
 login = fdsfndskflsd,
 pass = fdsfbdskjfd,
 FN = Dsfdsfds,
 LN = Dsfdsfsd,
 age = 57,
 e-mail = Fd@dsfd.fds,
 phone = +4 (354) 353-4543

********************** 
Date of registration = 2017-04-19 13:45:54 +0000,
 login = sdfdsfnl,
 pass = sdfnksdbf,
 FN = Sfdkfdsb,
 LN = Fsdfksdbf,
 age = 33,
 e-mail = Dsf@fdsf.fsd,
 phone = (34) 543-5435

********************** 
Date of registration = 2017-04-19 13:55:36 +0000,
 login = dsdf,
 pass = fsdfsd,
 FN = Dsffsdf,
 LN = Sdfdsf,
 age = 44,
 e-mail = Dsf@fdsf.fds,
 phone = (34) 232-4234

********************** 
Date of registration = 2017-04-19 13:57:24 +0000,
 login = dsfdsf,
 pass = dsfdsf,
 FN = Fdsfdsf,
 LN = Dsfdsfd,
 age = 44,
 e-mail = Dsfd@fdsf.dsf,
 phone = +34 (543) 534-5435

********************** 
Date of registration = 2017-04-19 14:04:00 +0000,
 login = dfdsfsd,
 pass = fsdfdsfsd,
 FN = Sdfff,
 LN = Sdfsdf,
 age = 44,
 e-mail = Fdsfds@dfds.df,
 phone = +3 (242) 343-2432

********************** 
Date of registration = 2017-04-19 14:07:38 +0000,
 login = dfdsfdsf,
 pass = dfdsfdsf,
 FN = Sdfdsf,
 LN = Dsfdsf,
 age = 55,
 e-mail = Fsfd@fdf.f,
 phone = +3 (454) 554-3543

********************** 
Date of registration = 2017-04-19 14:08:58 +0000,
 login = dfdsfds,
 pass = fdsfdsf,
 FN = Dsfdsfdsf,
 LN = Dfsfdsf,
 age = 55,
 e-mail = Ewr@sdfd.sdd,
 phone = +42 (523) 532-5325

********************** 
Date of registration = 2017-04-19 14:12:43 +0000,
 login = dsfdsf,
 pass = dsfdsf,
 FN = Dsfdsf,
 LN = Dsfsd,
 age = 55,
 e-mail = Dfssdf@fdsf.dfs,
 phone = +43 (543) 543-5335

********************** 
Date of registration = 2017-04-19 14:15:27 +0000,
 login = fdsfsdf,
 pass = fdsfdsfd,
 FN = Fsdfds,
 LN = Fsdf,
 age = 44,
 e-mail = Dfs@sdf.dsf,
 phone = +3 (242) 432-4324

********************** 
Date of registration = 2017-04-19 14:17:29 +0000,
 login = dfsfs,
 pass = fsdfds,
 FN = Fdsfds,
 LN = Dsffsd,
 age = 44,
 e-mail = Fdsf@dsa.sad,
 phone = +34 (243) 243-2432

********************** 
Date of registration = 2017-04-19 14:30:58 +0000,
 login = dsfdfds,
 pass = dsfdsfdsf,
 FN = Dsfdsfds,
 LN = Fsdfds,
 age = 44,
 e-mail = Fdsfds@dfsf.fds,
 phone = +43 (543) 543-5543

********************** 
Date of registration = 2017-04-19 14:35:51 +0000,
 login = dfdsfds,
 pass = fdsfdsf,
 FN = Dsfdsf,
 LN = Dsfdsf,
 age = 44,
 e-mail = Fdgf@fds.fsd,
 phone = +4 (354) 354-3543

********************** 
Date of registration = 2017-04-19 14:39:38 +0000,
 login = dsffdsf,
 pass = dsfdsfds,
 FN = Sfdfsdf,
 LN = Fdsfsddsf,
 age = 44,
 e-mail = Sfdf@fdf.fsdf,
 phone = (444) 444-4444

********************** 
Date of registration = 2017-04-19 14:40:41 +0000,
 login = sadsadsad,
 pass = sadsad,
 FN = Sadsad,
 LN = Asdd,
 age = 33,
 e-mail = Dsfd@dfd.fds,
 phone = +3 (243) 252-3532

********************** 
Date of registration = 2017-04-19 14:44:31 +0000,
 login = fdfdsf,
 pass = dsfdsfdsf,
 FN = Dsfdsf,
 LN = Dsfdsf,
 age = 34,
 e-mail = Fggsg@fdsf.fds,
 phone = +3 (243) 243-3434

********************** 
Date of registration = 2017-04-19 14:47:55 +0000,
 login = dfdsfdsf,
 pass = dsfdsfdsf,
 FN = Dsfdsf,
 LN = Dsf,
 age = 44,
 e-mail = Fdsf@fdsf.fds,
 phone = (454) 543-5435

********************** 
Date of registration = 2017-04-19 14:50:27 +0000,
 login = fdsfdsf,
 pass = dsfdsfds,
 FN = Fds,
 LN = Fds,
 age = 33,
 e-mail = Fdsf@fd.fds,
 phone = (342) 432-4324

********************** 
Date of registration = 2017-04-19 15:03:45 +0000,
 login = sdfdsfds,
 pass = fdgfdgfdgfd,
 FN = Fd,
 LN = Sfdsfdsfds,
 age = 44,
 e-mail = Fdg@df.ds,
 phone = +43 (534) 543-5435

********************** 
Date of registration = 2017-04-19 15:05:10 +0000,
 login = dfdsf,
 pass = dsfdsf,
 FN = Sdfsdf,
 LN = Dsfdsf,
 age = 44,
 e-mail = Fdsf@fdsf.fsd,
 phone = +3 (523) 532-5325

********************** 
Date of registration = 2017-04-19 15:09:01 +0000,
 login = fdsfsdf,
 pass = fsfsdfs,
 FN = Fsdfsdf,
 LN = Dsfdsf,
 age = 44,
 e-mail = Dfds@fdsf.dsf,
 phone = +43 (543) 543-5454

********************** 
Date of registration = 2017-04-19 15:12:52 +0000,
 login = dfdsfdsf,
 pass = dsfdsfdsf,
 FN = Dsfdsfds,
 LN = Fssdfdsf,
 age = 77,
 e-mail = Fdsfds#\@fdsf.fs,
 phone = +4 (334) 435-4343

********************** 
Date of registration = 2017-04-19 15:15:14 +0000,
 login = dsfdsfdsf,
 pass = dsfdsfdsf,
 FN = Dsfdsf,
 LN = Dsfdsf,
 age = 77,
 e-mail = Fdf@fds.fsd,
 phone = (435) 435-4343

********************** 
Date of registration = 2017-04-19 15:17:06 +0000,
 login = dsfdsfdsf,
 pass = dsfdsfdsf,
 FN = Dsfdsf,
 LN = Dsfdsf,
 age = 77,
 e-mail = Fdf@fds.fsd,
 phone = (435) 435-4343

********************** 
Date of registration = 2017-04-19 15:19:03 +0000,
 login = dfdsfdsf,
 pass = dsfdsfdsf,
 FN = Sdfdsf,
 LN = Dsfsd,
 age = 33,
 e-mail = Rewr@fdsf.fsd,
 phone = +43 (543) 435-4354

********************** 
Date of registration = 2017-04-19 15:23:13 +0000,
 login = sadasdsads,
 pass = dasdsad,
 FN = Saddsad,
 LN = Asdsad,
 age = 33,
 e-mail = Dasdsa@dfsf.fds,
 phone = +43 (543) 543-5435

********************** 
Date of registration = 2017-04-19 15:23:54 +0000,
 login = fsdfsdf,
 pass = FSDFDSFFDDFS,
 FN = Fdsf,
 LN = Sdfsdfsdf,
 age = 33,
 e-mail = Ewr@SDF.FDS,
 phone = +3 (432) 525-3223

********************** 
Date of registration = 2017-04-19 15:25:49 +0000,
 login = dsfdsfdsfd,
 pass = dfsdsfd,
 FN = Dfdfdsf,
 LN = Fdsfddfs,
 age = 34,
 e-mail = Dfsf@FSD.DSF,
 phone = +324 (324) 434-3324

********************** 
Date of registration = 2017-04-19 15:31:57 +0000,
 login = dsfdsf,
 pass = dsfdsfdsf,
 FN = Dfsfdsfds,
 LN = Dfsdfs,
 age = 33,
 e-mail = Dfsf@dfffds.fs,
 phone = +32 (434) 334-2342

********************** 
Date of registration = 2017-04-19 15:33:03 +0000,
 login = dfdsf,
 pass = dsfffdsdfs,
 FN = Sdffdsdsf,
 LN = Dsfdsf,
 age = 33,
 e-mail = Dffs@fd.fsd,
 phone = +3 (243) 432-4324

********************** 
Date of registration = 2017-04-19 16:05:47 +0000,
 login = eferewer543dskfn,
 pass = fdsdsf,
 FN = Lkhfsdldsf Dsfdsf,
 LN = Dfs,
 age = 21,
 e-mail = FD@dsad.dfs,
 phone = +943 (843) 985-3498

********************** 
Date of registration = 2017-04-19 18:30:05 +0000,
 login = fdsfdsf,
 pass = dfsdsff,
 FN = Sdf,
 LN = Fs,
 age = 44,
 e-mail = Ee@dfsf.sdf,
 phone = +443 (434) 343-4343

********************** 
Date of registration = 2017-04-19 18:33:28 +0000,
 login = dsffsdf,
 pass = sdfdsf,
 FN = Sdfdsf,
 LN = Sfsdf,
 age = 33,
 e-mail = Fdsf@fdsf.fds,
 phone = +5 (254) 545-4543

********************** 
Date of registration = 2017-04-19 18:37:26 +0000,
 login = sdsadas,
 pass = asdasd,
 FN = Dasdsa,
 LN = Asd,
 age = 33,
 e-mail = E@dfsf.fs,
 phone = +32 (432) 432-4324

********************** 
Date of registration = 2017-04-19 18:41:18 +0000,
 login = fdsfsdf,
 pass = sdfdsf,
 FN = Sdfsdf,
 LN = Sdfdsf,
 age = 43,
 e-mail = Sd@dsfs.fs,
 phone = +3 (243) 243-2423

********************** 
Date of registration = 2017-04-19 18:52:22 +0000,
 login = dfsdfsdf,
 pass = dsfdsf,
 FN = Sdfdsffds,
 LN = Fdsfds,
 age = 44,
 e-mail = Fd@f.f,
 phone = +34 (542) 543-5435

********************** 
Date of registration = 2017-04-19 18:53:29 +0000,
 login = dfsdsfds,
 pass = sdfdsf,
 FN = Sdfdsf,
 LN = Sdf,
 age = 44,
 e-mail = Fdsf@df.fd,
 phone = +4 (534) 534-5345

********************** 
Date of registration = 2017-04-19 20:23:23 +0000,
 login = sggds,
 pass = sdggdsg,
 FN = Gsdgsd,
 LN = Gsdg,
 age = 44,
 e-mail = Fsdf@fgsd.gs,
 phone = (4) 343-5346

********************** 
Date of registration = 2017-04-19 21:32:28 +0000,
 login = asdsaf,
 pass = fasfasf,
 FN = Fasfas,
 LN = Afsf,
 age = 33,
 e-mail = Afs@asdf.sdf,
 phone = +34 (252) 452-3525

********************** 
Date of registration = 2017-04-19 21:36:25 +0000,
 login = fdsfdsf,
 pass = fsdfdsf,
 FN = Dsfdsf,
 LN = Fsdsdf,
 age = 44,
 e-mail = Dsff@fg.gs,
 phone = +2 (435) 235-2325

********************** 
Date of registration = 2017-04-19 22:42:03 +0000,
 login = fsafas,
 pass = fasfaf,
 FN = Assaf,
 LN = Fasf,
 age = 33,
 e-mail = Sfaf@fdf.df,
 phone = +34 (243) 242-4423

********************** 
Date of registration = 2017-04-19 22:50:04 +0000,
 login = sadad,
 pass = dsdsfdsf,
 FN = Dasad,
 LN = Adadasd,
 age = 33,
 e-mail = 3asd.fdf@fdf.fds,
 phone = (342) 442-3432

********************** 
Date of registration = 2017-04-20 08:19:38 +0000,
 login = sdfdsfdsf,
 pass = sdfdsfdsf,
 FN = Dsfdsf,
 LN = Dsfdsf,
 age = 33,
 e-mail = Dsfdsf@fdsf.fsd,
 phone = +32 (432) 432-4234

********************** 
Date of registration = 2017-04-20 08:28:11 +0000,
 login = dfsdfdsf,
 pass = dsfdsfds,
 FN = Fsdsdfd,
 LN = Dsfsdf,
 age = 33,
 e-mail = Dfsfdsf@fds.fsd,
 phone = (324) 324-3223

********************** 
Date of registration = 2017-04-20 08:29:30 +0000,
 login = dsfdsfdsf,
 pass = fsdfdsf,
 FN = Sdfdsfsd,
 LN = Dsfsfdsf,
 age = 44,
 e-mail = Dsfdsf#fdsf@fdsf.dsf,
 phone = (454) 354-3534

********************** 
Date of registration = 2017-04-20 08:41:36 +0000,
 login = sadsad,
 pass = sadsadsda,
 FN = Alexander,
 LN = Berezovskiy-Belocerkovskiy-Guk,
 age = 33,
 e-mail = Dsfdsf@fd.dsf,
 phone = +32 (432) 532-5325

********************** 
Date of registration = 2017-04-20 08:51:37 +0000,
 login = dsfdsfdsf,
 pass = sdfdsfdsf,
 FN = Sdfdsfdsfds,
 LN = Dsfdsfdsfdsf,
 age = 44,
 e-mail = Dsfdsf#@sdf.dsf,
 phone = +43 (543) 543-5435

********************** 
Date of registration = 2017-04-20 08:52:33 +0000,
 login = dsfdsfdsf,
 pass = sdfdsfdsf,
 FN = Sdfdsfdsfds,
 LN = Dsfdsfdsfdsf,
 age = 44,
 e-mail = Dsfdsf#@sdf.dsf,
 phone = +43 (543) 543-5435

********************** 
Date of registration = 2017-04-20 08:54:52 +0000,
 login = dsfdsf,
 pass = dsfdsf,
 FN = Dsfdsf,
 LN = Fdssf,
 age = 44,
 e-mail = Dfdsf@fdsf.fsd,
 phone = (3) 243-4234

********************** 
Date of registration = 2017-04-20 09:18:04 +0000,
 login = fdgdfg,
 pass = dfgfdgfdg,
 FN = Gfddfgfd,
 LN = Dfgfdg,
 age = 44,
 e-mail = Fdg@fdsf.fsdf,
 phone = +4 (534) 543-5435

********************** 
Date of registration = 2017-04-20 09:19:39 +0000,
 login = erwerwer,
 pass = rwerewrew,
 FN = Rwerewr,
 LN = Werewr,
 age = 66,
 e-mail = Sdfsdf@dsff.dsf,
 phone = (345) 532-5325

********************** 
Date of registration = 2017-04-20 09:20:10 +0000,
 login = dfsfsf,
 pass = fsdfdsf,
 FN = Fsdfdsf,
 LN = Dsfdsf,
 age = 33,
 e-mail = Dsfsd@fsdf.dsf,
 phone = +32 (432) 442-3423

********************** 
Date of registration = 2017-04-20 09:20:52 +0000,
 login = dfsfsf,
 pass = fsdfdsf,
 FN = Fsdfdsf,
 LN = Dsfdsf,
 age = 33,
 e-mail = Dsfsd@fsdf.dsf,
 phone = +32 (432) 442-3423

********************** 
Date of registration = 2017-04-20 09:31:49 +0000,
 login = fdwfewfew,
 pass = ewfwefewf,
 FN = Fwfewfw,
 LN = Wefewf,
 age = 33,
 e-mail = Dfds@dfsf.fsdf,
 phone = (32) 423-5325

********************** 
Date of registration = 2017-04-20 09:37:54 +0000,
 login = dasdasd,
 pass = sadsadsa,
 FN = Asdasd,
 LN = Asdasd,
 age = 33,
 e-mail = Dsasdas@dasf.asf,
 phone = +3 (243) 243-2432

********************** 
Date of registration = 2017-04-20 09:41:29 +0000,
 login = dsdsad,
 pass = sadasd,
 FN = Sadsadsa,
 LN = Sadas,
 age = 33,
 e-mail = Sdad@sdad.das,
 phone = +3 (432) 432-4324

********************** 
Date of registration = 2017-04-20 09:43:23 +0000,
 login = sdadfasf,
 pass = asfsafasf,
 FN = Afsasf,
 LN = Asffasfas,
 age = 66,
 e-mail = Fdaf@fds.dsf,
 phone = (324) 442-4324

********************** 
Date of registration = 2017-04-20 09:45:10 +0000,
 login = sadsa,
 pass = dasdasdas,
 FN = Dasdas,
 LN = Asdasd,
 age = 22,
 e-mail = Sdad@sadd.ad,
 phone = +2 (342) 343-2432

********************** 
Date of registration = 2017-04-20 09:47:30 +0000,
 login = sdasd,
 pass = dasdasd,
 FN = Sa,
 LN = Dasd,
 age = 34,
 e-mail = Dasd@sd.das,
 phone = (32) 432-4324

********************** 
Date of registration = 2017-04-20 09:51:45 +0000,
 login = dqdsad,
 pass = sadsad,
 FN = Sdaas,
 LN = Sdasd,
 age = 66,
 e-mail = Fdsf>fdsf@fd.fsd,
 phone = +3 (243) 243-2432

********************** 
Date of registration = 2017-04-20 10:14:55 +0000,
 login = dasdsa,
 pass = asdsadasd,
 FN = Asdsad,
 LN = Asdsad,
 age = 34,
 e-mail = Fsdf@sdf.sd,
 phone = +3 (253) 253-2532

********************** 
Date of registration = 2017-04-20 10:16:10 +0000,
 login = fdsfsdf,
 pass = sdfdsf,
 FN = Dsfdsf,
 LN = Dsfd,
 age = 32,
 e-mail = Dsf#@Fdsf.dsf,
 phone = +3 (243) 242-3423

********************** 
Date of registration = 2017-04-20 12:42:56 +0000,
 login = fsdf,
 pass = fsdfdsf,
 FN = Sdfdsf,
 LN = Dsfdsf,
 age = 31,
 e-mail = Dsf@Fdf.fs,
 phone = +3 (253) 253-2532

********************** 
Date of registration = 2017-04-20 12:49:07 +0000,
 login = dsfdsfDsds,
 pass = fdsfdsf,
 FN = Dsfdsf,
 LN = Sdfdsf,
 age = 33,
 e-mail = Fdfs@fd.fs,
 phone = (324) 342-3324

********************** 
Date of registration = 2017-04-20 12:50:19 +0000,
 login = dfdsfds,
 pass = fdsfdsfdsf,
 FN = Dsfdsf,
 LN = Fdssdfdsf,
 age = 56,
 e-mail = Dsfds@fdsf.sfd,
 phone = +343 (243) 243-2423

********************** 
Date of registration = 2017-04-20 12:56:28 +0000,
 login = dfdsfds,
 pass = fdsfdsfdsf,
 FN = Dsfdsf,
 LN = Fdssdfdsf,
 age = 56,
 e-mail = Dsfds@fdsf.sfd,
 phone = +343 (243) 243-2423

********************** 
Date of registration = 2017-04-20 13:04:30 +0000,
 login = ewrewrwe,
 pass = ewrwer,
 FN = Wrewrwre,
 LN = Wrer,
 age = 23,
 e-mail = Dsff@DSFDS.F,
 phone = (352) 523-5235

********************** 
Date of registration = 2017-04-20 13:05:54 +0000,
 login = dfsfsd,
 pass = fdsfdsf,
 FN = Dsfdsf,
 LN = Sdfsdf,
 age = 23,
 e-mail = Fdsf@sdf.fsdf,
 phone = +43 (243) 334-2324

********************** 
Date of registration = 2017-04-20 14:32:59 +0000,
 login = asdasd,
 pass = asdasdsa,
 FN = Sadasdas,
 LN = Adsasd,
 age = 34,
 e-mail = Dsadsa@dsad.das,
 phone = +3 (432) 432-4324

********************** 
Date of registration = 2017-04-20 14:33:52 +0000,
 login = afsfsfasf,
 pass = asfsaf,
 FN = Asfasf,
 LN = Asfasf,
 age = 21,
 e-mail = Sadsa@dasd.as,
 phone = +2 (141) 241-2412

********************** 
Date of registration = 2017-04-20 14:34:41 +0000,
 login = dfdfds,
 pass = sdsaffafs,
 FN = Sdfdsf,
 LN = Sdf,
 age = 36,
 e-mail = 3243@fdss.dsf,
 phone = +2 (432) 423-4234

********************** 
Date of registration = 2017-04-20 14:41:24 +0000,
 login = dsfdsf,
 pass = sdfdsfds,
 FN = Fsdfds,
 LN = Fdsdsf,
 age = 34,
 e-mail = 4324@fdsf.fsdf,
 phone = (32) 432-4432

********************** 
Date of registration = 2017-04-20 14:45:45 +0000,
 login = dfsfdsf,
 pass = dsfdsfdsf,
 FN = Dsfdsfds,
 LN = Dsfds,
 age = 22,
 e-mail = Dfd@dffdsf.sdf,
 phone = +4 (444) 444-4444

********************** 
Date of registration = 2017-04-20 14:47:38 +0000,
 login = dsfdsf,
 pass = 32434423432,
 FN = Fdsfsdf,
 LN = Fsdfsd,
 age = 33,
 e-mail = Df@fds.fds,
 phone = +32 (432) 432-4324

********************** 
Date of registration = 2017-04-20 14:50:53 +0000,
 login = dsfdsf,
 pass = dsfdsf,
 FN = Fsdf,
 LN = Dsfsf,
 age = 55,
 e-mail = Fdf@f.fsd.fsd,
 phone = +3 (243) 242-3432

********************** 
Date of registration = 2017-04-20 14:56:03 +0000,
 login = dfdsfdsf,
 pass = dsfdsfdsf,
 FN = Dsfdsf,
 LN = Dsff,
 age = 77,
 e-mail = Dsfs@dasf.aa,
 phone = +324 (432) 432-4243

********************** 
Date of registration = 2017-04-21 09:12:20 +0000,
 login = dsfdsfsdf,
 pass = sdfdsfdsf,
 FN = Dsfsdf,
 LN = Dsfs,
 age = 55,
 e-mail = Fdsf@fdsf.fsd,
 phone = +3 (243) 243-2432

********************** 
Date of registration = 2017-04-21 09:19:18 +0000,
 login = dsfdsfsdf,
 pass = sdfdsfdsf,
 FN = Dsfsdf,
 LN = Dsfs,
 age = 55,
 e-mail = Fdsf@fdsf.fsd,
 phone = +3 (243) 243-2432

********************** 
Date of registration = 2017-04-21 13:16:13 +0000,
 login = Alex44,
 pass = asdfghj,
 FN = Alexander,
 LN = Berezovskyi,
 age = 29,
 e-mail = Aberezovskyy@mail.ru,
 phone = (093) 528-6918

********************** 
Date of registration = 2017-04-21 13:16:13 +0000,
 login = Alex44,
 pass = asdfghj,
 FN = Alexander,
 LN = Berezovskyi,
 age = 29,
 e-mail = Aberezovskyy@mail.ru,
 phone = (093) 528-6918

********************** 
Date of registration = 2017-04-21 13:19:46 +0000,
 login = fdsfdssdf,
 pass = sdfdsfdsf,
 FN = Fdsfdsf,
 LN = Fdsfdsf,
 age = 34,
 e-mail = Dfsf@fds.fsd,
 phone = +4 (324) 234-3244

********************** 
Date of registration = 2017-04-21 13:19:46 +0000,
 login = fdsfdssdf,
 pass = sdfdsfdsf,
 FN = Fdsfdsf,
 LN = Fdsfdsf,
 age = 34,
 e-mail = Dfsf@fds.fsd,
 phone = +4 (324) 234-3244

********************** 
Date of registration = 2017-04-21 13:23:51 +0000,
 login = Alex44,
 pass = asdfgjfasf,
 FN = Alexander,
 LN = Berezovskyi,
 age = 29,
 e-mail = Aberezovskyy@mail.ru,
 phone = (093) 528-6918

********************** 
Date of registration = 2017-04-21 13:32:42 +0000,
 login = Alex44,
 pass = asdfgjfasf,
 FN = Alexander,
 LN = Berezovskyi,
 age = 29,
 e-mail = adsad@dsad.dasd,
 phone = (093) 528-6918

********************** 
Date of registration = 2017-04-21 13:37:01 +0000,
 login = Alex44,
 pass = asdfgjfasf,
 FN = Alexander,
 LN = Berezovskyi,
 age = 29,
 e-mail = Sadd@ddas.d,
 phone = (093) 528-6918

********************** 
Date of registration = 2017-04-21 13:38:40 +0000,
 login = Alex44,
 pass = asdfgjfasf,
 FN = Alexander,
 LN = Berezovskyi,
 age = 29,
 e-mail = Sadd@ddas.d,
 phone = (093) 528-6918

********************** 
Date of registration = 2017-04-21 13:45:55 +0000,
 login = Alex44,
 pass = asdfgjfasf,
 FN = Alexander,
 LN = Berezovskyi,
 age = 29,
 e-mail = ddsad.2>@fdf.sd,
 phone = (093) 528-6918

********************** 
Date of registration = 2017-04-21 14:01:37 +0000,
 login = fdaf,
 pass = dsfdsfsdfds,
 FN = Sdfdsf,
 LN = Sdfdsf,
 age = 33,
 e-mail = Dfdsf@fds.ds,
 phone = (32) 432-4324

********************** 
Date of registration = 2017-04-21 14:01:59 +0000,
 login = fdsfdsfdsf,
 pass = dsfdsfdsf,
 FN = Sdfdsfdsf,
 LN = Dsfdsfsd,
 age = 33,
 e-mail = Fsdf@fdsf.sdf,
 phone = (32) 432-4324

********************** 
Date of registration = 2017-04-21 14:02:11 +0000,
 login = fdsfdsfdsf,
 pass = dsfdsfdsf,
 FN = Sdfdsfdsf,
 LN = Dsfdsfsd,
 age = 33,
 e-mail = Fsdf@fdsf.sdf,
 phone = (32) 432-4324

********************** 
Date of registration = 2017-04-21 14:23:32 +0000,
 login = fdsfdsfdsf,
 pass = dsfdsfdsf,
 FN = Sdfdsfdsf,
 LN = Dsfdsfsd,
 age = 33,
 e-mail = Fsdf@fdsf.sdf,
 phone = (32) 432-4324

********************** 
Date of registration = 2017-04-21 14:30:04 +0000,
 login = dsfdsfdsf,
 pass = dsfdsf,
 FN = Sdfdsf,
 LN = Sdfsdf,
 age = 33,
 e-mail = Fdsfs@fdsf.dsf,
 phone = (324) 324-3243

********************** 
Date of registration = 2017-04-21 14:31:54 +0000,
 login = sadsad,
 pass = sadasdsa,
 FN = Asdsad,
 LN = Asdsad,
 age = 22,
 e-mail = Dsad@dsad.das,
 phone = +2 (312) 321-3213

********************** 
Date of registration = 2017-04-21 14:32:33 +0000,
 login = dasdsadas,
 pass = adsdasdas,
 FN = Asdsadsa,
 LN = Asdasd,
 age = 23,
 e-mail = Dsad@das.asd,
 phone = +2 (343) 242-3432

********************** 
Date of registration = 2017-04-21 14:32:57 +0000,
 login = sddsf,
 pass = dsfdsf,
 FN = Dsfdsf,
 LN = Dsfsdf,
 age = 22,
 e-mail = Dsafa@afs.fa,
 phone = +2 (312) 312-3132

********************** 
Date of registration = 2017-04-21 14:33:15 +0000,
 login = dsfdsfdsf,
 pass = dsfdsf,
 FN = Sdfdsf,
 LN = Sdfsdf,
 age = 33,
 e-mail = Fdsfs@fdsf.dsf,
 phone = (324) 324-3243

********************** 
Date of registration = 2017-04-21 14:33:19 +0000,
 login = dsfdsfdsf,
 pass = dsfdsf,
 FN = Sdfdsf,
 LN = Sdfsdf,
 age = 33,
 e-mail = Fdsfs@fdsf.dsf,
 phone = (324) 324-3243

********************** 
Date of registration = 2017-04-21 14:35:18 +0000,
 login = sccdscdsc,
 pass = cxvcxvcx,
 FN = Cxzcxz,
 LN = Cxcxv,
 age = 33,
 e-mail = Dsfds@dfsfsd.tert,
 phone = +34 (324) 324-3423

********************** 
Date of registration = 2017-04-21 14:35:35 +0000,
 login = sccdscdsc,
 pass = cxvcxvcx,
 FN = Cxzcxz,
 LN = Cxcxv,
 age = 33,
 e-mail = Dsfds@dfsfsd.tert,
 phone = +34 (324) 324-3423

********************** 
Date of registration = 2017-04-21 14:36:10 +0000,
 login = dfsfdsf,
 pass = fdgfdg,
 FN = Fgsg,
 LN = Fgdgfd,
 age = 22,
 e-mail = Dsfds@fsdf.h,
 phone = +2 (432) 423-4324

********************** 
Date of registration = 2017-04-21 14:38:06 +0000,
 login = ,
 pass = ,
 FN = ,
 LN = ,
 age = ,
 e-mail = ,
 phone = 

********************** 
Date of registration = 2017-04-21 14:53:07 +0000,
 login = ,
 pass = ,
 FN = ,
 LN = ,
 age = ,
 e-mail = ,
 phone = 

********************** 
Date of registration = 2017-04-21 14:53:58 +0000,
 login = sad,
 pass = dsadsadsad,
 FN = Dasdsa,
 LN = Sdadassda,
 age = 22,
 e-mail = Sdad2@231.213,
 phone = +2 (313) 432-4324

********************** 
Date of registration = 2017-04-21 14:54:35 +0000,
 login = sadsadsa,
 pass = sadsad,
 FN = Asdsa,
 LN = Asdasd,
 age = 22,
 e-mail = Sdad@das.c,
 phone = (21) 321-3123

********************** 
Date of registration = 2017-04-21 14:54:38 +0000,
 login = sadsadsa,
 pass = sadsad,
 FN = Asdsa,
 LN = Asdasd,
 age = 22,
 e-mail = Sdad@das.c,
 phone = (21) 321-3123

********************** 
Date of registration = 2017-04-21 14:55:53 +0000,
 login = asadsa,
 pass = ,
 FN = ,
 LN = ,
 age = ,
 e-mail = ,
 phone = 

********************** 
Date of registration = 2017-04-21 14:56:35 +0000,
 login = sadsadsa,
 pass = asdsad,
 FN = Dsaasdsad,
 LN = Qwweq,
 age = 22,
 e-mail = Sdadsa@dfsf.fdaf,
 phone = (232) 132-1321

********************** 
Date of registration = 2017-04-21 14:58:19 +0000,
 login = ,
 pass = ,
 FN = ,
 LN = ,
 age = ,
 e-mail = ,
 phone = 

********************** 
Date of registration = 2017-04-21 14:58:43 +0000,
 login = wqewqe,
 pass = ,
 FN = ,
 LN = ,
 age = ,
 e-mail = ,
 phone = 

********************** 
Date of registration = 2017-04-21 15:06:40 +0000,
 login = sadsad,
 pass = sadsads,
 FN = Asdsad,
 LN = Adssad,
 age = 21,
 e-mail = Dasd@dsa.dsa,
 phone = +213 (213) 213-3213

********************** 
Date of registration = 2017-04-21 15:08:56 +0000,
 login = ,
 pass = ,
 FN = ,
 LN = ,
 age = ,
 e-mail = ,
 phone = 

********************** 
Date of registration = 2017-04-21 15:10:12 +0000,
 login = aaaaaaaa7879,
 pass = ghjgjhgj,
 FN = Hkjhgk,
 LN = Fghfhgfhgf,
 age = 55,
 e-mail = Ghjg@nj.nn,
 phone = +7 (897) 987-7979

********************** 
Date of registration = 2017-04-21 15:11:10 +0000,
 login = dfdgdg6786,
 pass = bjkbkjbkjbk,
 FN = Ghjgjhgjhg,
 LN = Nknk,
 age = 78,
 e-mail = Hjkh@hjkh.njk,
 phone = +6 (786) 786-8888

********************** 
Date of registration = 2017-04-21 15:11:30 +0000,
 login = dfdgdg6786,
 pass = bjkbkjbkjbk,
 FN = Ghjgjhgjhg,
 LN = Nknk,
 age = 78,
 e-mail = Hjkh@hjkh.njk,
 phone = +6 (786) 786-8888

********************** 
Date of registration = 2017-04-21 15:21:27 +0000,
 login = sadsa,
 pass = asdasd,
 FN = Ads,
 LN = Ads,
 age = 22,
 e-mail = Dsad@sad.s,
 phone = +233 (423) 434-2432

********************** 
Date of registration = 2017-04-21 15:21:48 +0000,
 login = sadda,
 pass = asdsad,
 FN = Asddas,
 LN = Asddsa,
 age = 22,
 e-mail = Sd@dsa.da,
 phone = +23 (432) 432-4324

********************** 
Date of registration = 2017-04-21 15:22:07 +0000,
 login = ,
 pass = ,
 FN = ,
 LN = ,
 age = ,
 e-mail = ,
 phone = 

********************** 
Date of registration = 2017-04-21 15:22:46 +0000,
 login = ,
 pass = ,
 FN = ,
 LN = ,
 age = ,
 e-mail = ,
 phone = 

********************** 
Date of registration = 2017-04-21 15:22:58 +0000,
 login = ,
 pass = ,
 FN = ,
 LN = ,
 age = ,
 e-mail = ,
 phone = 

********************** 
Date of registration = 2017-04-21 15:26:39 +0000,
 login = dsfd,
 pass = dsfdsf,
 FN = Dsfdfs,
 LN = Fdsfds,
 age = 22,
 e-mail = Fdsf@dsaf.fd,
 phone = +2 (343) 243-2423

********************** 
Date of registration = 2017-04-21 15:27:16 +0000,
 login = dfsf,
 pass = 42342343,
 FN = Sdfsdfsdf,
 LN = Fdsdfs,
 age = 32,
 e-mail = Dasdd@fds.fds,
 phone = +3 (243) 223-4324

********************** 
Date of registration = 2017-04-21 15:30:27 +0000,
 login = dfsf,
 pass = 42342343,
 FN = Sdfsdfsdf,
 LN = Fdsdfs,
 age = 32,
 e-mail = fdfdf@dffds.dsf,
 phone = +2 (343) 243-2432

********************** 
Date of registration = 2017-04-21 15:41:19 +0000,
 login = dsfds,
 pass = dsffsd,
 FN = Sdf,
 LN = Fsd,
 age = 33,
 e-mail = Fds@fds.dfs,
 phone = +3 (243) 243-2432

********************** 
Date of registration = 2017-04-21 15:41:54 +0000,
 login = dsfds,
 pass = dsffsd,
 FN = Sdf,
 LN = Fsd,
 age = 33,
 e-mail = Sqedwq@fdf.f,
 phone = +3 (243) 243-2432

********************** 
Date of registration = 2017-04-21 15:48:43 +0000,
 login = dsfds,
 pass = dsffsd,
 FN = Sdf,
 LN = Fsd,
 age = 33,
 e-mail = Aaaaaa@dddd.d,
 phone = (32) 432-4324

********************** 
Date of registration = 2017-04-21 15:50:29 +0000,
 login = dsfds,
 pass = dsffsd,
 FN = Sdf,
 LN = Fsd,
 age = 33,
 e-mail = Aaaaaaa@dddd.d,
 phone = +3 (243) 243-2432

********************** 
Date of registration = 2017-04-21 15:52:22 +0000,
 login = dsfds,
 pass = dsffsd,
 FN = Sdf,
 LN = Fsd,
 age = 33,
 e-mail = dddd.daaaaaadddd.,
 phone = +3 (243) 243-2432

********************** 
Date of registration = 2017-04-21 15:53:11 +0000,
 login = fdsfds,
 pass = fdsfds,
 FN = Sdff,
 LN = Dsffd,
 age = 33,
 e-mail = Aaaaaaa@ddd.d,
 phone = +2 (222) 222-2222

********************** 
Date of registration = 2017-04-21 15:53:43 +0000,
 login = asdsad,
 pass = dsadssdasad,
 FN = Asdds,
 LN = Asdsda,
 age = 33,
 e-mail = Aaaaaa@bbb.b,
 phone = +2 (321) 312-3123

********************** 
Date of registration = 2017-04-21 15:53:48 +0000,
 login = asdsad,
 pass = dsadssdasad,
 FN = Asdds,
 LN = Asdsda,
 age = 33,
 e-mail = Aaaaaa@bbb.b,
 phone = +2 (321) 312-3123

********************** 
Date of registration = 2017-04-21 15:55:00 +0000,
 login = asdsad,
 pass = dsadssdasad,
 FN = Asdds,
 LN = Asdsda,
 age = 33,
 e-mail = Aaaaaa@bbb.b,
 phone = +2 (321) 312-3123

********************** 
Date of registration = 2017-04-21 15:55:26 +0000,
 login = sadsd,
 pass = sadsads,
 FN = Asdads,
 LN = Dasdass,
 age = 22,
 e-mail = Aaaaaa@bbbb.b,
 phone = +23 (432) 432-4234

********************** 
Date of registration = 2017-04-21 16:01:58 +0000,
 login = asdsad,
 pass = dsadssdasad,
 FN = Asdds,
 LN = Asdsda,
 age = 33,
 e-mail = Dffs@fdfd.fsd,
 phone = +2 (321) 312-3123

********************** 
Date of registration = 2017-04-21 16:02:38 +0000,
 login = Alex444,
 pass = asdfdgfd,
 FN = Alena,
 LN = Romanova,
 age = 22,
 e-mail = Aaaaaa@bbb.b,
 phone = +2 (312) 321-3213

********************** 
Date of registration = 2017-04-24 09:58:30 +0000,
 login = asdsad,
 pass = dsadssdasad,
 FN = Asdds,
 LN = Asdsda,
 age = 33,
 e-mail = Aaaaaa@bbb.b,
 phone = +2 (321) 312-3123

********************** 
Date of registration = 2017-04-24 10:04:18 +0000,
 login = asdsad,
 pass = dsadssdasad,
 FN = Asdds,
 LN = Asdsda,
 age = 33,
 e-mail = Aaaaaa@bbb.b,
 phone = +2 (321) 312-3123

********************** 
Date of registration = 2017-04-24 10:05:07 +0000,
 login = asdsad,
 pass = dsadssdasad,
 FN = Asdds,
 LN = Asdsda,
 age = 33,
 e-mail = Aaaaaa@bbb.b,
 phone = +2 (321) 312-3123

********************** 
Date of registration = 2017-04-24 10:06:12 +0000,
 login = asdsad,
 pass = dsadssdasad,
 FN = Asdds,
 LN = Asdsda,
 age = 33,
 e-mail = Aaaaaa@bbb.b,
 phone = +2 (321) 312-3123

********************** 
Date of registration = 2017-04-24 11:37:38 +0000,
 login = asdsad,
 pass = dsadssdasad,
 FN = Asdds,
 LN = Asdsda,
 age = 33,
 e-mail = Aaaaaa@bbb.b,
 phone = +2 (321) 312-3123

********************** 
Date of registration = 2017-04-24 11:40:25 +0000,
 login = asdsad,
 pass = dsadssdasad,
 FN = Asdds,
 LN = Asdsda,
 age = 33,
 e-mail = Aaaaaa@bbb.b,
 phone = +2 (321) 312-3123

********************** 
Date of registration = 2017-04-24 13:11:54 +0000,
 login = asdsad,
 pass = dsadssdasad,
 FN = Asdds,
 LN = Asdsda,
 age = 33,
 e-mail = Aaaaaa@bbb.b,
 phone = +2 (321) 312-3123

********************** 
Date of registration = 2017-04-24 13:16:33 +0000,
 login = asdsad,
 pass = dsadssdasad,
 FN = Asdds,
 LN = Asdsda,
 age = 33,
 e-mail = Aaaaaa@bbb.b,
 phone = +2 (321) 312-3123

********************** 
Date of registration = 2017-04-24 13:20:13 +0000,
 login = asdsad,
 pass = dsadssdasad,
 FN = Asdds,
 LN = Asdsda,
 age = 33,
 e-mail = Aaaaaa@bbb.b,
 phone = +2 (321) 312-3123

********************** 
Date of registration = 2017-04-24 15:37:24 +0000,
 login = asdsad,
 pass = dsadssdasad,
 FN = Asdds,
 LN = Asdsda,
 age = 33,
 e-mail = Aaaaaa@bbb.b,
 phone = +2 (321) 312-3123

********************** 
Date of registration = 2017-04-24 15:40:49 +0000,
 login = asdsad,
 pass = dsadssdasad,
 FN = Asdds,
 LN = Asdsda,
 age = 33,
 e-mail = Aaaaaa@bbb.b,
 phone = +2 (321) 312-3123

********************** 
Date of registration = 2017-04-24 16:50:18 +0000,
 login = asdsad,
 pass = dsadssdasad,
 FN = Asdds,
 LN = Asdsda,
 age = 33,
 e-mail = Aaaaaa@bbb.b,
 phone = +2 (321) 312-3123

********************** 
Date of registration = 2017-04-24 16:50:31 +0000,
 login = asdsad,
 pass = dsadssdasad,
 FN = Asdds,
 LN = Asdsda,
 age = 33,
 e-mail = Aaaaaa@bbb.b,
 phone = +2 (321) 312-3123

********************** 
Date of registration = 2017-04-25 08:16:03 +0000,
 login = asdsad,
 pass = dsadssdasad,
 FN = Asdds,
 LN = Asdsda,
 age = 33,
 e-mail = Aaaaaa@bbb.b,
 phone = +2 (321) 312-3123

********************** 
Date of registration = 2017-04-25 08:18:38 +0000,
 login = alex43,
 pass = dsffssdf,
 FN = Alecas,
 LN = Vatso,
 age = 21,
 e-mail = Erewr@fdsf.fdsf,
 phone = +3 (423) 333-3322

********************** 
Date of registration = 2017-04-25 08:20:00 +0000,
 login = alex43,
 pass = dsffssdf,
 FN = Alecas,
 LN = Vatso,
 age = 21,
 e-mail = Erewr@fdsf.fdsf,
 phone = +3 (423) 333-3322

********************** 
Date of registration = 2017-04-25 08:29:46 +0000,
 login = alex43,
 pass = dsffssdf,
 FN = Alecas,
 LN = Vatso,
 age = 21,
 e-mail = Erewr@fdsf.fdsf,
 phone = +3 (423) 333-3322

********************** 
Date of registration = 2017-04-25 08:32:50 +0000,
 login = Alllllaaaaa,
 pass = asdasdsad,
 FN = Malina,
 LN = Kravets,
 age = 34,
 e-mail = Asd@fasf.fdf,
 phone = (3) 243-2432

********************** 
Date of registration = 2017-04-25 08:41:14 +0000,
 login = Alllllaaaaa,
 pass = asdasdsad,
 FN = Malina,
 LN = Kravets,
 age = 34,
 e-mail = Asd@fasf.fdf,
 phone = (3) 243-2432

********************** 
Date of registration = 2017-04-25 09:27:04 +0000,
 login = Aser123,
 pass = asdfgh,
 FN = Dima,
 LN = Kolasov,
 age = 45,
 e-mail = Dim@asd.fgh,
 phone = +1 (234) 561-2345
, 
 gender = (null)

********************** 
Date of registration = 2017-04-25 09:27:31 +0000,
 login = Aser123,
 pass = asdfgh,
 FN = Dima,
 LN = Kolasov,
 age = 45,
 e-mail = Dim@asd.fgh,
 phone = +1 (234) 561-2345
, 
 gender = (null)

********************** 
Date of registration = 2017-04-25 10:18:46 +0000,
 login = Aser123,
 pass = asdfgh,
 FN = Dima,
 LN = Kolasov,
 age = 45,
 e-mail = Dim@asd.fgh,
 phone = +1 (234) 561-2345

********************** 
Date of registration = 2017-04-25 10:22:54 +0000,
 login = Aser123,
 pass = asdfgh,
 FN = Dima,
 LN = Kolasov,
 age = 45,
 e-mail = Dim@asd.fgh,
 phone = +1 (234) 561-2345

********************** 
Date of registration = 2017-04-25 12:45:38 +0000,
 login = Aser123,
 pass = asdfgh,
 FN = Dima,
 LN = Kolasov,
 age = 45,
 e-mail = Dim@asd.fgh,
 phone = +1 (234) 561-2345

********************** 
Date of registration = 2017-04-25 13:03:39 +0000,
 login = Aser123,
 pass = asdfgh,
 FN = Dima,
 LN = Kolasov,
 age = 45,
 e-mail = Dim@asd.fgh,
 phone = +1 (234) 561-2345

********************** 
Date of registration = 2017-04-25 13:12:44 +0000,
 login = Aser123,
 pass = asdfgh,
 FN = Dima,
 LN = Kolasov,
 age = 45,
 e-mail = Dim@asd.fgh,
 phone = +1 (234) 561-2345

********************** 
Date of registration = 2017-04-25 13:13:14 +0000,
 login = Aser123,
 pass = asdfgh,
 FN = Dima,
 LN = Kolasov,
 age = 45,
 e-mail = Dim@asd.fgh,
 phone = +1 (234) 561-2345

********************** 
Date of registration = 2017-04-25 13:13:28 +0000,
 login = Aser123,
 pass = asdfgh,
 FN = Dima,
 LN = Kolasov,
 age = 45,
 e-mail = Dim@asd.fgh,
 phone = +1 (234) 561-2345

********************** 
Date of registration = 2017-08-11 13:36:57 +0000,
 login = Dafdf,
 pass = dsfdsfs,
 FN = Sdfds,
 LN = Dsfsdf,
 age = 33,
 e-mail = edf@dsfds.dsf,
 phone = +324 (324) 243-4234
